…
getrollingtotal(c, 3)
#>  [1] NA NA  6  9 12 15 18 21 24 27
getrollingtotal(d, 2)
#> [1] NA  1  1  1  1  1

iris %>% 
  dplyr::group_by(Species) %>% 
  dplyr::mutate(sepal_length_deciles = getdeciles(Sepal.Length)) %>% 
  dplyr::count(sepal_length_deciles)
#> # A tibble: 29 x 3
#> # Groups:   Species [3]
#>    Species    sepal_length_deciles     n
#>    <fct>                     <dbl> <int>
#>  1 setosa                        1     5
#>  2 setosa                        2     6
#>  3 setosa                        3     5
#>  4 setosa                        4     4
#>  5 setosa                        5     8
#>  6 setosa                        6     8
#>  7 setosa                        8     4
#>  8 setosa                        9     5
#>  9 setosa                       10     5
#> 10 versicolor                    1     5
#> # ... with 19 more rows
…
